{
    "sectionHero": {
        "imgName": "hero_image.png",
        "imgMobileName": "hero_image_mobile.png",
        "title": "Open Courses",
        "subTitle": "Earn college credit, and make progress toward an undergraduate degree.",
        "button1": {
            "name": "View courses",
            "path": "/courses/"
        },
        "button2": {
            "name": "Register now"
        }
    },
    "sectionIntroduction": {
        "definition": " Open Courses are a selection of first-year college courses offered online at ASU and open to everyone. Through Open Courses, you can test the college waters, earn college credit for a fraction of the cost and pay only if you pass."
    },
    "sectionBenefit": {
        "title": "Benefits of Open Courses",
        "benefits": [
            {
                "imgName": "pay_when_pass.svg",
                "heading": "Pay when you pass",
                "description": "Pay for a course only if you successfully pass with a 'C' or higher. Courses cost $425."
            },
            {
                "imgName": "earn_college_credit.svg",
                "heading": "Earn college credit",
                "description": "Courses are taught by ASU faculty. Use credit at ASU or at another university."
            },
            {
                "imgName": "begin_today.svg",
                "heading": "Begin today",
                "description": "Start making progress toward your degree immediately."
            }
        ]
    },
    "sectionTimeline": {
        "imgName": "how_it_works.png",
        "title": "How it works",
        "subtitle": "Learn about Open Courses",
        "timelines": [
            {
                "title": "Get set up",
                "text": "Register online and log in to the student portal."
            },
            {
                "title": "Sign up for courses",
                "text": "Select courses. Verify your identity. Pay $25 per course to start."
            },
            {
                "title": "Take course",
                "text": "Do assignments. Take exams. Get a grade."
            },
            {
                "title": "Get credit",
                "text": "Like your grade? Pay $400 to add it to your transcript for college credit."
            }
        ]
    },
    "sectionCategory": {
        "title": "Who can take Open Courses?",
        "subtitle": "Select the category that best describes you.",
        "categories": [
            {
                "imgName": "earned_admission_learners.png",
                "title": "Earned Admission learners",
                "pathName": "/how-it-works/earned-admission-learners"
            },
            {
                "imgName": "high_school_learners.png",
                "title": "High school learners",
                "pathName": "/how-it-works/high-school-learners"
            },
            {
                "imgName": "transfer_students.png",
                "title": "Transfer students, gap year learners and more",
                "pathName": "/how-it-works/transfer-students-and-gap-learners"
            }
        ]
    },
    "sectionTestimonial": {
        "testimonials": [
            {
                "text": "It’s a really great opportunity to not only work on your educational goals, but you can do it while simultaneously building your career no matter what it is because of the flexibility of the program.",
                "author": "Nigel Sanchez, Open Courses learner"
            }
        ]
    }
}