[
    {
        "title": "",
        "path": "/"
    },
    {
        "title": "How it works",
        "path": "/how-it-works/",
        "children": [
            {
                "title": "Earned Admission learners",
                "path": "/how-it-works/earned-admission-learners/"
            },
            {
                "title": "High school learners",
                "path": "/how-it-works/high-school-learners/"
            },
            {
                "title": "Transfer students and gap year learners",
                "path": "/how-it-works/transfer-students-and-gap-learners/"
            },
            {
                "title": "GPA calculator",
                "path": "/how-it-works/gpa-calculator/"
            },
            {
                "title": "Technical requirements",
                "path": "/how-it-works/technical-requirements/"
            }
        ]
    },
    {
        "title": "Courses",
        "path": "/courses/"
    },
    {
        "title": "Partner with us",
        "path": "",
        "children": [
            {
                "title": "For organizations",
                "path": "/partner-with-us/for-organizations/"
            },
            {
                "title": "For high schools",
                "path": "/partner-with-us/high-school/"
            }
        ]
    },
    {
        "title": "About",
        "path": "/about/",
        "children": [
            {
                "title": "Contact us",
                "path": "/about/contact-us/"
            },
            {
                "title": "FAQ",
                "path": "/about/terms-of-use/"
            },
            {
                "title": "Marketing materials",
                "path": "/about/marketing-materials/"
            }
        ]
    }
]